<?xml version='1.0' encoding='UTF-8'?>
<osm version='0.6' generator='JOSM'>
  <bounds minlat='30.8612823' minlon='75.8582354' maxlat='30.861586199999998' maxlon='75.8586377' origin='CGImap 0.0.2' />
  <bounds minlat='30.8618533' minlon='75.8603114' maxlat='30.8619362' maxlon='75.8603919' origin='CGImap 0.0.2' />
  <node id='619664419' timestamp='2010-01-25T05:31:27Z' uid='223790' user='Amit Chaudhary' visible='true' version='2' changeset='3708198' lat='30.8622013' lon='75.8608514' />
  <node id='619664422' timestamp='2010-01-25T05:31:27Z' uid='223790' user='Amit Chaudhary' visible='true' version='2' changeset='3708198' lat='30.8620793' lon='75.860905' />
  <node id='619664427' timestamp='2010-01-25T05:31:27Z' uid='223790' user='Amit Chaudhary' visible='true' version='2' changeset='3708198' lat='30.8619619' lon='75.8609077' />
  <node id='619664430' timestamp='2010-01-25T05:31:27Z' uid='223790' user='Amit Chaudhary' visible='true' version='2' changeset='3708198' lat='30.8619412' lon='75.8608487' />
  <node id='619664432' timestamp='2010-01-25T05:31:27Z' uid='223790' user='Amit Chaudhary' visible='true' version='2' changeset='3708198' lat='30.8618836' lon='75.8608112' />
  <node id='619664435' timestamp='2010-01-25T05:31:27Z' uid='223790' user='Amit Chaudhary' visible='true' version='2' changeset='3708198' lat='30.861879' lon='75.8603471' />
  <node id='619664438' timestamp='2010-01-25T05:31:27Z' uid='223790' user='Amit Chaudhary' visible='true' version='2' changeset='3708198' lat='30.862199' lon='75.8603445' />
  <node id='619664440' timestamp='2010-01-25T05:31:28Z' uid='223790' user='Amit Chaudhary' visible='true' version='2' changeset='3708198' lat='30.8621967' lon='75.8605751' />
  <node id='619666968' timestamp='2010-01-25T05:31:27Z' uid='223790' user='Amit Chaudhary' visible='true' version='2' changeset='3708198' lat='30.8618773' lon='75.8606152' />
  <node id='919375245' action='delete' timestamp='2010-09-20T07:00:14Z' uid='348465' user='harleen' visible='true' version='1' changeset='5826367' lat='30.8616068' lon='75.8556878' />
  <node id='919375251' action='delete' timestamp='2010-09-20T07:00:14Z' uid='348465' user='harleen' visible='true' version='1' changeset='5826367' lat='30.8626019' lon='75.8558805' />
  <node id='919375257' action='delete' timestamp='2010-09-20T07:00:14Z' uid='348465' user='harleen' visible='true' version='1' changeset='5826367' lat='30.86258' lon='75.8556473' />
  <node id='919375258' timestamp='2010-10-06T21:14:06Z' uid='51045' user='Geogast' visible='true' version='2' changeset='5973704' lat='30.8614013' lon='75.8584354'>
    <tag k='amenity' v='place_of_worship' />
    <tag k='name' v='Gurduwara Guru Nanak Darbar' />
    <tag k='religion' v='sikh' />
  </node>
  <node id='919375273' action='delete' timestamp='2010-09-20T07:00:15Z' uid='348465' user='harleen' visible='true' version='1' changeset='5826367' lat='30.8615284' lon='75.8584526' />
  <node id='919375274' action='delete' timestamp='2010-09-20T07:00:15Z' uid='348465' user='harleen' visible='true' version='1' changeset='5826367' lat='30.8613915' lon='75.8584508' />
  <node id='919375275' action='delete' timestamp='2010-09-20T07:00:15Z' uid='348465' user='harleen' visible='true' version='1' changeset='5826367' lat='30.8613669' lon='75.8591584' />
  <node id='919407410' action='delete' timestamp='2010-09-20T07:24:13Z' uid='348465' user='harleen' visible='true' version='1' changeset='5826522' lat='30.8618946' lon='75.8556758' />
  <way id='48843066' timestamp='2011-12-12T21:26:34Z' uid='307202' user='alester' visible='true' version='6' changeset='10103221'>
    <nd ref='619664419' />
    <nd ref='619664422' />
    <nd ref='619664427' />
    <nd ref='619664430' />
    <nd ref='619664432' />
    <nd ref='619666968' />
    <nd ref='619664435' />
    <nd ref='619664438' />
    <nd ref='619664440' />
    <nd ref='619664419' />
    <tag k='amenity' v='place_of_worship' />
    <tag k='boundary' v='Gurudwara boundary' />
    <tag k='historic' v='monument' />
    <tag k='name' v='Gurudwara Sahib' />
    <tag k='religion' v='sikh' />
  </way>
  <way id='78298520' action='delete' timestamp='2010-09-20T07:24:14Z' uid='348465' user='harleen' visible='true' version='3' changeset='5826522'>
    <tag k='highway' v='residential' />
  </way>
</osm>
